[
	{"ItemValueId":1,"ItemShortCode":"HRI","ItemName":"Hardoi","ItemParentId":1},
	{"ItemValueId":2,"ItemShortCode":"SPN","ItemName":"Shahjahanpur","ItemParentId":1},
	{"ItemValueId":3,"ItemShortCode":"PIHN","ItemName":"Pihani","ItemParentId":1},
	{"ItemValueId":4,"ItemShortCode":"BDVH","ItemName":"Budh Vihar","ItemParentId":2}
]